{
  "ignore": [],
  "invoices": {
    "id": "invoice_id",
    "customerName": "customer_name",
    "invoiceNumber": "invoice_number",
    "customerId": "customer_id",
    "currency": "currency_code",
    "issueDate": "date",
    "dueDate": "due_date",
    "paidDate": "last_payment_date",
    "subTotal": "sub_total",
    "totalAmount": "total",
    "totalDiscount": "discount",
    "amountDue": "balance",
    "status": "status",
    "createdAt": "date",
    "updatedAt": "last_modified_time",
    "totalTaxAmount": "tax_total",
    "lineItems": {
      "id": "line_item_id",
      "productId": "item_id",
      "productName": "name",
      "description": "description",
      "quantity": "quantity",
      "unitPrice": "rate",
      "totalPrice": "item_total",
      "discountAmount": "discount",
      "accountName": "account_name",
      "taxCode": "tax_name"
    }
  },
  "buy_orders": {
    "transaction_date": "date",
    "id": "reference_number",
    "line_items": {
      "quantity": "quantity",
      "product_remoteId": "item_id"
    }
  }
}